[gd_scene load_steps=9 format=2]

[ext_resource path="res://Actors/Character/Character.cs" type="Script" id=1]
[ext_resource path="res://Actors/Character/Art/Freddie/Freddie__staff_room__v0.4.png" type="Texture" id=2]
[ext_resource path="res://Actors/Character/Art/Freddie/FREDDIE_BITMASK.png" type="BitMap" id=3]
[ext_resource path="res://Interface/Panels/InfoPanel.tscn" type="PackedScene" id=4]
[ext_resource path="res://Interface/Fonts/VoidWarriorWhite16.tres" type="DynamicFont" id=5]
[ext_resource path="res://icon.png" type="Texture" id=6]

[sub_resource type="Shader" id=1]
code = "shader_type canvas_item;

uniform bool enabled = false;

void fragment(){
	COLOR = texture(TEXTURE, UV);
	if (enabled)
	{
		COLOR.rgb += vec3(.2,.2,.2);
	}
	
}"

[sub_resource type="ShaderMaterial" id=2]
shader = SubResource( 1 )
shader_param/enabled = false

[node name="CharFreddie" type="TextureButton"]
material = SubResource( 2 )
margin_right = 279.0
margin_bottom = 359.0
texture_normal = ExtResource( 2 )
texture_click_mask = ExtResource( 3 )
expand = true
stretch_mode = 4
script = ExtResource( 1 )
__meta__ = {
"_edit_use_anchors_": false
}
CharacterType = 1
_infoText = "Freddie Fromage. Click to talk!"

[node name="Sprite" type="Sprite" parent="."]
visible = false
texture = ExtResource( 6 )
centered = false
region_enabled = true
region_rect = Rect2( 0, 0, 47, 55 )

[node name="Label" type="Label" parent="."]
visible = false
margin_left = 4.17137
margin_top = 39.8783
margin_right = 44.1714
margin_bottom = 53.8783
custom_fonts/font = ExtResource( 5 )
text = "test"
align = 1

[node name="InfoPanel" parent="." instance=ExtResource( 4 )]

[node name="SoundPlayer" type="AudioStreamPlayer2D" parent="."]
pause_mode = 2
volume_db = 5.0
[connection signal="gui_input" from="." to="." method="OnBtnSpriteGuiInput"]
[connection signal="mouse_entered" from="." to="." method="OnMouseEntered"]
[connection signal="mouse_exited" from="." to="." method="OnMouseExited"]
[connection signal="pressed" from="." to="." method="OnCharacterPressed"]
