[gd_resource type="Theme" load_steps=9 format=2]

[ext_resource path="res://Interface/Fonts/Mospace.otf" type="DynamicFontData" id=1]

[sub_resource type="StyleBoxFlat" id=1]
bg_color = Color( 0.133333, 0.152941, 0.188235, 1 )
border_width_left = 5
border_width_top = 5
border_width_right = 5
border_width_bottom = 5
border_color = Color( 0.0705882, 0.0823529, 0.101961, 1 )
expand_margin_left = 5.0
expand_margin_top = 8.0
expand_margin_bottom = 2.0
shadow_color = Color( 0.133333, 0.152941, 0.188235, 1 )
shadow_size = 2

[sub_resource type="StyleBoxFlat" id=2]
bg_color = Color( 1, 0.85098, 0.678431, 1 )
border_width_left = 5
border_width_top = 5
border_width_right = 5
border_width_bottom = 5
border_color = Color( 0.501961, 0.423529, 0.341176, 1 )
expand_margin_left = 5.0
expand_margin_top = 8.0
expand_margin_bottom = 2.0
shadow_color = Color( 0.8, 0.676267, 0.544, 1 )
shadow_size = 2

[sub_resource type="StyleBoxFlat" id=3]
bg_color = Color( 0.9, 0.7656, 0.612, 1 )
border_width_left = 5
border_width_top = 5
border_width_right = 5
border_width_bottom = 5
border_color = Color( 0.501961, 0.423529, 0.341176, 1 )
expand_margin_left = 5.0
expand_margin_top = 8.0
expand_margin_bottom = 2.0
shadow_color = Color( 0.8, 0.676267, 0.544, 1 )
shadow_size = 2

[sub_resource type="StyleBoxFlat" id=4]
bg_color = Color( 0.8, 0.680533, 0.544, 1 )
border_width_left = 5
border_width_top = 5
border_width_right = 5
border_width_bottom = 5
border_color = Color( 0.501961, 0.423529, 0.341176, 1 )
expand_margin_left = 5.0
expand_margin_top = 8.0
expand_margin_bottom = 2.0
shadow_color = Color( 0.8, 0.676267, 0.544, 1 )
shadow_size = 2

[sub_resource type="StyleBoxFlat" id=5]
bg_color = Color( 0.0156863, 0.156863, 0.4, 1 )
border_width_left = 5
border_width_top = 5
border_width_right = 5
border_width_bottom = 5
border_color = Color( 0.008, 0.0784, 0.2, 1 )
corner_radius_top_right = 25
corner_radius_bottom_left = 25
expand_margin_top = 8.0
shadow_color = Color( 0.0156863, 0.156863, 0.4, 1 )
shadow_size = 2

[sub_resource type="StyleBoxFlat" id=6]
bg_color = Color( 0, 0.368627, 0.631373, 1 )
border_width_left = 5
border_width_top = 5
border_width_right = 5
border_width_bottom = 5
border_color = Color( 0, 0.235294, 0.4, 1 )
expand_margin_left = 10.0
expand_margin_right = 5.0
expand_margin_top = 9.0
expand_margin_bottom = 5.0
shadow_color = Color( 0, 0.116667, 0.2, 1 )
shadow_size = 2

[sub_resource type="DynamicFont" id=7]
size = 20
font_data = ExtResource( 1 )

[resource]
default_font = SubResource( 7 )
Button/colors/font_color = Color( 1, 1, 1, 1 )
Button/colors/font_color_disabled = Color( 0.901961, 0.901961, 0.901961, 0.384314 )
Button/colors/font_color_hover = Color( 1, 1, 1, 1 )
Button/colors/font_color_pressed = Color( 1, 1, 1, 1 )
Button/constants/hseparation = 2
Button/fonts/font = null
Button/styles/disabled = SubResource( 1 )
Button/styles/focus = null
Button/styles/hover = SubResource( 2 )
Button/styles/normal = SubResource( 3 )
Button/styles/pressed = SubResource( 4 )
LineEdit/colors/clear_button_color = Color( 0.88, 0.88, 0.88, 1 )
LineEdit/colors/clear_button_color_pressed = Color( 1, 1, 1, 1 )
LineEdit/colors/cursor_color = Color( 0.94, 0.94, 0.94, 1 )
LineEdit/colors/font_color = Color( 0.88, 0.88, 0.88, 1 )
LineEdit/colors/font_color_selected = Color( 0, 0, 0, 1 )
LineEdit/colors/font_color_uneditable = Color( 0.88, 0.88, 0.88, 0.5 )
LineEdit/colors/selection_color = Color( 0.49, 0.49, 0.49, 1 )
LineEdit/constants/minimum_spaces = 12
LineEdit/fonts/font = null
LineEdit/icons/clear = null
LineEdit/styles/focus = SubResource( 5 )
LineEdit/styles/normal = null
LineEdit/styles/read_only = null
MarginContainer/constants/margin_bottom = 0
MarginContainer/constants/margin_left = 0
MarginContainer/constants/margin_right = 0
MarginContainer/constants/margin_top = 0
Panel/styles/panel = SubResource( 6 )
