[gd_scene load_steps=4 format=2]

[ext_resource path="res://Props/InfoProp/Searchable/LunchBag/LUNCH_BAGBitmask.png" type="BitMap" id=1]
[ext_resource path="res://Props/InfoProp/Searchable/LunchBag/LUNCH_BAG.png" type="Texture" id=2]
[ext_resource path="res://Props/InfoProp/InfoProp.tscn" type="PackedScene" id=3]

[node name="LunchBag" type="Node2D"]

[node name="InfoProp" parent="." instance=ExtResource( 3 )]
margin_left = 262.0
margin_top = 232.0
margin_right = 389.0
margin_bottom = 335.0
texture_normal = ExtResource( 2 )
texture_click_mask = ExtResource( 1 )
stretch_mode = 4
_infoText = "Marky's lunch bag. Big enough for a heart? (Click to search...)"
_searchText = "Are you sure you want to go through the stress of searching Marky's vile lunch? Can your heart take it?"
_heartRateModifier = 75
