[gd_scene load_steps=4 format=2]

[ext_resource path="res://Props/InfoProp/InfoProp.tscn" type="PackedScene" id=1]
[ext_resource path="res://Props/InfoProp/QueeniePhone/PHONEBitmask.png" type="BitMap" id=2]
[ext_resource path="res://Props/InfoProp/QueeniePhone/PHONE.png" type="Texture" id=3]

[node name="QueeniePhone" type="Node2D"]

[node name="InfoProp" parent="." instance=ExtResource( 1 )]
margin_left = 449.775
margin_top = 284.888
margin_right = 581.775
margin_bottom = 384.888
texture_normal = ExtResource( 3 )
texture_click_mask = ExtResource( 2 )
stretch_mode = 4
_infoText = ""
_infoTextList = [ "From: Queenie Cardiaccian QueenOfHearts@gfail.com; To:  Paul Prattle VeggieLover99@gfail.com; Date: Jan 3, 2021, 10:20 PM", "Subject: RE: Shipment;", "Hi Paul. Great.  Don’t worry. These patients have no choice - Queenie.", "------------------------------", "From: Paul Prattle VeggieLover99@gfail.com; To: Queenie Cardiaccian QueenOfHearts@gfail.com; Date: Jan 3, 2021, 9:49 PM", "Subject: Shipment;", "Hi Queenie,", "Thanks for the payment. Much appreciated. I've sent the shipment of 10 artichoke hearts to the hospital.  I just want to make sure these artichokes go to patients whose own hearts are broken beyond repair - who have no hope but the artichoke heart transplant. You know, because of the risks. Of course, nothing is better than a patient’s own heart, right? Paul." ]
_searchable = false

[node name="Sprite" parent="InfoProp" index="1"]
region_rect = Rect2( 1085, 601, 75, 31 )

[editable path="InfoProp"]
