[gd_scene load_steps=7 format=2]

[ext_resource path="res://Interface/Fonts/VoidWarriorWhite16.tres" type="DynamicFont" id=1]
[ext_resource path="res://icon.png" type="Texture" id=2]
[ext_resource path="res://Props/Door/Door.cs" type="Script" id=3]
[ext_resource path="res://Props/Door/DoorClinicToReception/CLINICAL_ROOM_V0.3_doorBitmask.png" type="BitMap" id=4]
[ext_resource path="res://Interface/Panels/InfoPanel.tscn" type="PackedScene" id=5]
[ext_resource path="res://Props/Door/DoorClinicToReception/CLINICAL_ROOM_V0.3_door.png" type="Texture" id=6]

[node name="DoorClinicToReception" type="TextureButton"]
margin_right = 554.0
margin_bottom = 402.0
texture_normal = ExtResource( 6 )
texture_click_mask = ExtResource( 4 )
expand = true
stretch_mode = 4
script = ExtResource( 3 )
__meta__ = {
"_edit_use_anchors_": false
}
_infoText = "Saunter back to reception..."

[node name="Sprite" type="Sprite" parent="."]
visible = false
texture = ExtResource( 2 )
centered = false
region_enabled = true
region_rect = Rect2( 29, 2, 15, 53 )

[node name="Label" type="Label" parent="."]
visible = false
margin_left = -27.906
margin_top = 53.7517
margin_right = 51.094
margin_bottom = 67.7517
custom_fonts/font = ExtResource( 1 )
text = "door to ......."
align = 1
__meta__ = {
"_edit_use_anchors_": false
}

[node name="InfoPanel" parent="." instance=ExtResource( 5 )]

[node name="SoundPlayer" type="AudioStreamPlayer2D" parent="."]
[connection signal="gui_input" from="." to="." method="OnBtnSpriteGuiInput"]
[connection signal="mouse_entered" from="." to="." method="OnMouseEntered"]
[connection signal="mouse_exited" from="." to="." method="OnMouseExited"]
